<?xml version="1.0" encoding="UTF-8" standalone="no"?>
<!-- Created with Inkscape (http://www.inkscape.org/) -->

<svg
   width="1000"
   height="1000"
   viewBox="0 0 264.5833 264.5833"
   version="1.1"
   id="svg1"
   xml:space="preserve"
   inkscape:version="1.2.2 (b0a8486541, 2022-12-01)"
   sodipodi:docname="logo-debian-30-years.svg"
   inkscape:export-filename="logo-debian-30-years.png"
   inkscape:export-xdpi="96"
   inkscape:export-ydpi="96"
   xmlns:inkscape="http://www.inkscape.org/namespaces/inkscape"
   xmlns:sodipodi="http://sodipodi.sourceforge.net/DTD/sodipodi-0.dtd"
   xmlns="http://www.w3.org/2000/svg"
   xmlns:svg="http://www.w3.org/2000/svg"
   xmlns:i="http://ns.adobe.com/AdobeIllustrator/10.0/"><sodipodi:namedview
     id="namedview1"
     pagecolor="#ffffff"
     bordercolor="#000000"
     borderopacity="0.25"
     inkscape:showpageshadow="2"
     inkscape:pageopacity="0.0"
     inkscape:pagecheckerboard="0"
     inkscape:deskcolor="#d1d1d1"
     inkscape:document-units="mm"
     inkscape:zoom="0.3799488"
     inkscape:cx="455.32451"
     inkscape:cy="542.17831"
     inkscape:window-width="1453"
     inkscape:window-height="743"
     inkscape:window-x="1377"
     inkscape:window-y="722"
     inkscape:window-maximized="0"
     inkscape:current-layer="layer1"
     showguides="true"
     showgrid="false" /><defs
     id="defs1"><inkscape:path-effect
       effect="fillet_chamfer"
       id="path-effect2"
       is_visible="true"
       lpeversion="1"
       nodesatellites_param="F,0,0,1,0,0,0,1 @ F,0,0,1,0,0,0,1 @ F,0,0,1,0,0,0,1 @ F,0,0,1,0,0,0,1 @ F,0,0,1,0,4.6975278,0,1 @ F,0,0,1,0,0,0,1 @ F,0,0,1,0,0,0,1 @ F,0,0,1,0,0,0,1 @ F,0,0,1,0,0,0,1 @ F,0,0,1,0,0,0,1 @ F,0,0,1,0,0,0,1 @ F,0,0,1,0,1.1928148,0,1 @ F,0,0,1,0,0,0,1"
       radius="0"
       unit="px"
       method="auto"
       mode="F"
       chamfer_steps="1"
       flexible="false"
       use_knot_distance="true"
       apply_no_radius="true"
       apply_with_radius="true"
       only_selected="false"
       hide_knots="false" /><inkscape:path-effect
       effect="fillet_chamfer"
       id="path-effect1"
       is_visible="true"
       lpeversion="1"
       nodesatellites_param="F,0,0,1,0,0,0,1 @ F,0,0,1,0,0,0,1 @ F,0,0,1,0,4.564146,0,1 @ F,0,0,1,0,0,0,1 @ F,0,0,1,0,0,0,1 @ F,0,0,1,0,0,0,1 @ F,0,0,1,0,0,0,1 @ F,0,0,1,0,0,0,1 @ F,0,0,1,0,3.6171468,0,1 @ F,0,0,1,0,0,0,1 @ F,0,0,1,0,0,0,1 @ F,0,0,1,0,0,0,1 @ F,0,0,1,0,0,0,1 @ F,0,0,1,0,0,0,1 @ F,0,0,1,0,0,0,1 @ F,0,0,1,0,3.0547642,0,1 @ F,0,0,1,0,0,0,1 @ F,0,0,1,0,0,0,1 @ F,0,0,1,0,0,0,1 @ F,0,0,1,0,0,0,1 @ F,0,0,1,0,0,0,1 @ F,0,0,1,0,0,0,1 @ F,0,0,1,0,0,0,1 @ F,0,0,1,0,0,0,1 @ F,0,0,1,0,0,0,1 @ F,0,0,1,0,0,0,1 @ F,0,0,1,0,0,0,1 @ F,0,0,1,0,0,0,1 @ F,0,0,1,0,0,0,1 @ F,0,0,1,0,0,0,1"
       radius="0"
       unit="px"
       method="auto"
       mode="F"
       chamfer_steps="1"
       flexible="false"
       use_knot_distance="true"
       apply_no_radius="true"
       apply_with_radius="true"
       only_selected="false"
       hide_knots="false" /><rect
       x="59.766224"
       y="67.189415"
       width="41.30341"
       height="37.686981"
       id="rect319" /><rect
       x="63.953667"
       y="57.291828"
       width="50.629986"
       height="32.928524"
       id="rect313" /><rect
       x="65.095695"
       y="67.66526"
       width="45.300514"
       height="35.212585"
       id="rect307" /><rect
       x="73.660919"
       y="30.644464"
       width="19.795183"
       height="16.559431"
       id="rect301" /><rect
       x="56.340134"
       y="9.5169144"
       width="64.715019"
       height="29.121759"
       id="rect187" /><rect
       x="38.067657"
       y="45.300514"
       width="87.174942"
       height="27.218376"
       id="rect131" /><rect
       x="56.340134"
       y="9.5169144"
       width="137.23392"
       height="30.834805"
       id="rect187-2" /><rect
       x="56.340134"
       y="9.5169144"
       width="102.02133"
       height="43.587467"
       id="rect1406" /><rect
       x="56.340134"
       y="9.5169144"
       width="102.02133"
       height="43.587467"
       id="rect1480" /><rect
       x="56.340134"
       y="9.5169144"
       width="64.715019"
       height="29.121759"
       id="rect1691" /><rect
       x="56.340134"
       y="9.5169144"
       width="137.23392"
       height="30.834805"
       id="rect2141" /><inkscape:path-effect
       effect="skeletal"
       id="path-effect4829-6"
       is_visible="true"
       pattern="m -437.35281,152.15099 h 1"
       copytype="single_stretched"
       prop_scale="0.28222223"
       scale_y_rel="false"
       spacing="0"
       normal_offset="0"
       tang_offset="0"
       prop_units="false"
       vertical_pattern="false"
       fuse_tolerance="0"
       lpeversion="0"
       hide_knot="false" /><inkscape:path-effect
       effect="skeletal"
       id="path-effect4795-2"
       is_visible="true"
       pattern="m -404.35281,121.00813 c 0,-2.76 2.24,-5 5,-5 2.76,0 5,2.24 5,5 0,2.76 -2.24,5 -5,5 -2.76,0 -5,-2.24 -5,-5 z"
       copytype="single_stretched"
       prop_scale="0.28222223"
       scale_y_rel="false"
       spacing="0"
       normal_offset="0"
       tang_offset="0"
       prop_units="false"
       vertical_pattern="false"
       fuse_tolerance="0"
       lpeversion="0"
       hide_knot="false" /><inkscape:path-effect
       effect="skeletal"
       id="path-effect4803-6"
       is_visible="true"
       pattern="m -404.35281,121.00813 c 0,-2.76 2.24,-5 5,-5 2.76,0 5,2.24 5,5 0,2.76 -2.24,5 -5,5 -2.76,0 -5,-2.24 -5,-5 z"
       copytype="single_stretched"
       prop_scale="0.28222223"
       scale_y_rel="false"
       spacing="0"
       normal_offset="0"
       tang_offset="0"
       prop_units="false"
       vertical_pattern="false"
       fuse_tolerance="0"
       lpeversion="0"
       hide_knot="false" /><inkscape:path-effect
       effect="skeletal"
       id="path-effect4829-3-1"
       is_visible="true"
       pattern="m -433.93085,187.40802 h 1"
       copytype="single_stretched"
       prop_scale="0.28222223"
       scale_y_rel="false"
       spacing="0"
       normal_offset="0"
       tang_offset="0"
       prop_units="false"
       vertical_pattern="false"
       fuse_tolerance="0"
       lpeversion="0"
       hide_knot="false" /><inkscape:path-effect
       effect="skeletal"
       id="path-effect5017-8"
       is_visible="true"
       pattern="m -267.92424,29.579554 c 0,-2.76 2.24,-5 5,-5 2.76,0 5,2.24 5,5 0,2.76 -2.24,5 -5,5 -2.76,0 -5,-2.24 -5,-5 z"
       copytype="single_stretched"
       prop_scale="0.28222223"
       scale_y_rel="false"
       spacing="0"
       normal_offset="0"
       tang_offset="0"
       prop_units="false"
       vertical_pattern="false"
       fuse_tolerance="0"
       lpeversion="0"
       hide_knot="false" /><inkscape:path-effect
       effect="fillet_chamfer"
       id="path-effect2-4"
       is_visible="true"
       lpeversion="1"
       nodesatellites_param="F,0,0,1,0,0,0,1 @ F,0,0,1,0,0,0,1 @ F,0,0,1,0,0,0,1 @ F,0,0,1,0,0,0,1 @ F,0,0,1,0,4.6975278,0,1 @ F,0,0,1,0,0,0,1 @ F,0,0,1,0,0,0,1 @ F,0,0,1,0,0,0,1 @ F,0,0,1,0,0,0,1 @ F,0,0,1,0,0,0,1 @ F,0,0,1,0,0,0,1 @ F,0,0,1,0,1.1928148,0,1 @ F,0,0,1,0,0,0,1"
       radius="0"
       unit="px"
       method="auto"
       mode="F"
       chamfer_steps="1"
       flexible="false"
       use_knot_distance="true"
       apply_no_radius="true"
       apply_with_radius="true"
       only_selected="false"
       hide_knots="false" /><inkscape:path-effect
       effect="fillet_chamfer"
       id="path-effect2-1"
       is_visible="true"
       lpeversion="1"
       nodesatellites_param="F,0,0,1,0,0,0,1 @ F,0,0,1,0,0,0,1 @ F,0,0,1,0,0,0,1 @ F,0,0,1,0,0,0,1 @ F,0,0,1,0,4.6975278,0,1 @ F,0,0,1,0,0,0,1 @ F,0,0,1,0,0,0,1 @ F,0,0,1,0,0,0,1 @ F,0,0,1,0,0,0,1 @ F,0,0,1,0,0,0,1 @ F,0,0,1,0,0,0,1 @ F,0,0,1,0,1.1928148,0,1 @ F,0,0,1,0,0,0,1"
       radius="0"
       unit="px"
       method="auto"
       mode="F"
       chamfer_steps="1"
       flexible="false"
       use_knot_distance="true"
       apply_no_radius="true"
       apply_with_radius="true"
       only_selected="false"
       hide_knots="false" /><inkscape:path-effect
       effect="fillet_chamfer"
       id="path-effect2-7"
       is_visible="true"
       lpeversion="1"
       nodesatellites_param="F,0,0,1,0,0,0,1 @ F,0,0,1,0,0,0,1 @ F,0,0,1,0,0,0,1 @ F,0,0,1,0,0,0,1 @ F,0,0,1,0,4.6975278,0,1 @ F,0,0,1,0,0,0,1 @ F,0,0,1,0,0,0,1 @ F,0,0,1,0,0,0,1 @ F,0,0,1,0,0,0,1 @ F,0,0,1,0,0,0,1 @ F,0,0,1,0,0,0,1 @ F,0,0,1,0,1.1928148,0,1 @ F,0,0,1,0,0,0,1"
       radius="0"
       unit="px"
       method="auto"
       mode="F"
       chamfer_steps="1"
       flexible="false"
       use_knot_distance="true"
       apply_no_radius="true"
       apply_with_radius="true"
       only_selected="false"
       hide_knots="false" /><inkscape:path-effect
       effect="fillet_chamfer"
       id="path-effect2-7-3"
       is_visible="true"
       lpeversion="1"
       nodesatellites_param="F,0,0,1,0,0,0,1 @ F,0,0,1,0,0,0,1 @ F,0,0,1,0,0,0,1 @ F,0,0,1,0,0,0,1 @ F,0,0,1,0,4.6975278,0,1 @ F,0,0,1,0,0,0,1 @ F,0,0,1,0,0,0,1 @ F,0,0,1,0,0,0,1 @ F,0,0,1,0,0,0,1 @ F,0,0,1,0,0,0,1 @ F,0,0,1,0,0,0,1 @ F,0,0,1,0,1.1928148,0,1 @ F,0,0,1,0,0,0,1"
       radius="0"
       unit="px"
       method="auto"
       mode="F"
       chamfer_steps="1"
       flexible="false"
       use_knot_distance="true"
       apply_no_radius="true"
       apply_with_radius="true"
       only_selected="false"
       hide_knots="false" /><inkscape:path-effect
       effect="fillet_chamfer"
       id="path-effect2-8"
       is_visible="true"
       lpeversion="1"
       nodesatellites_param="F,0,0,1,0,0,0,1 @ F,0,0,1,0,0,0,1 @ F,0,0,1,0,0,0,1 @ F,0,0,1,0,0,0,1 @ F,0,0,1,0,4.6975278,0,1 @ F,0,0,1,0,0,0,1 @ F,0,0,1,0,0,0,1 @ F,0,0,1,0,0,0,1 @ F,0,0,1,0,0,0,1 @ F,0,0,1,0,0,0,1 @ F,0,0,1,0,0,0,1 @ F,0,0,1,0,1.1928148,0,1 @ F,0,0,1,0,0,0,1"
       radius="0"
       unit="px"
       method="auto"
       mode="F"
       chamfer_steps="1"
       flexible="false"
       use_knot_distance="true"
       apply_no_radius="true"
       apply_with_radius="true"
       only_selected="false"
       hide_knots="false" /><inkscape:path-effect
       effect="fillet_chamfer"
       id="path-effect2-8-5"
       is_visible="true"
       lpeversion="1"
       nodesatellites_param="F,0,0,1,0,0,0,1 @ F,0,0,1,0,0,0,1 @ F,0,0,1,0,0,0,1 @ F,0,0,1,0,0,0,1 @ F,0,0,1,0,4.6975278,0,1 @ F,0,0,1,0,0,0,1 @ F,0,0,1,0,0,0,1 @ F,0,0,1,0,0,0,1 @ F,0,0,1,0,0,0,1 @ F,0,0,1,0,0,0,1 @ F,0,0,1,0,0,0,1 @ F,0,0,1,0,1.1928148,0,1 @ F,0,0,1,0,0,0,1"
       radius="0"
       unit="px"
       method="auto"
       mode="F"
       chamfer_steps="1"
       flexible="false"
       use_knot_distance="true"
       apply_no_radius="true"
       apply_with_radius="true"
       only_selected="false"
       hide_knots="false" /><inkscape:path-effect
       effect="fillet_chamfer"
       id="path-effect2-1-7"
       is_visible="true"
       lpeversion="1"
       nodesatellites_param="F,0,0,1,0,0,0,1 @ F,0,0,1,0,0,0,1 @ F,0,0,1,0,0,0,1 @ F,0,0,1,0,0,0,1 @ F,0,0,1,0,4.6975278,0,1 @ F,0,0,1,0,0,0,1 @ F,0,0,1,0,0,0,1 @ F,0,0,1,0,0,0,1 @ F,0,0,1,0,0,0,1 @ F,0,0,1,0,0,0,1 @ F,0,0,1,0,0,0,1 @ F,0,0,1,0,1.1928148,0,1 @ F,0,0,1,0,0,0,1"
       radius="0"
       unit="px"
       method="auto"
       mode="F"
       chamfer_steps="1"
       flexible="false"
       use_knot_distance="true"
       apply_no_radius="true"
       apply_with_radius="true"
       only_selected="false"
       hide_knots="false" /><inkscape:path-effect
       effect="fillet_chamfer"
       id="path-effect2-8-7"
       is_visible="true"
       lpeversion="1"
       nodesatellites_param="F,0,0,1,0,0,0,1 @ F,0,0,1,0,0,0,1 @ F,0,0,1,0,0,0,1 @ F,0,0,1,0,0,0,1 @ F,0,0,1,0,4.6975278,0,1 @ F,0,0,1,0,0,0,1 @ F,0,0,1,0,0,0,1 @ F,0,0,1,0,0,0,1 @ F,0,0,1,0,0,0,1 @ F,0,0,1,0,0,0,1 @ F,0,0,1,0,0,0,1 @ F,0,0,1,0,1.1928148,0,1 @ F,0,0,1,0,0,0,1"
       radius="0"
       unit="px"
       method="auto"
       mode="F"
       chamfer_steps="1"
       flexible="false"
       use_knot_distance="true"
       apply_no_radius="true"
       apply_with_radius="true"
       only_selected="false"
       hide_knots="false" /><inkscape:path-effect
       effect="fillet_chamfer"
       id="path-effect2-75"
       is_visible="true"
       lpeversion="1"
       nodesatellites_param="F,0,0,1,0,0,0,1 @ F,0,0,1,0,0,0,1 @ F,0,0,1,0,0,0,1 @ F,0,0,1,0,0,0,1 @ F,0,0,1,0,4.6975278,0,1 @ F,0,0,1,0,0,0,1 @ F,0,0,1,0,0,0,1 @ F,0,0,1,0,0,0,1 @ F,0,0,1,0,0,0,1 @ F,0,0,1,0,0,0,1 @ F,0,0,1,0,0,0,1 @ F,0,0,1,0,1.1928148,0,1 @ F,0,0,1,0,0,0,1"
       radius="0"
       unit="px"
       method="auto"
       mode="F"
       chamfer_steps="1"
       flexible="false"
       use_knot_distance="true"
       apply_no_radius="true"
       apply_with_radius="true"
       only_selected="false"
       hide_knots="false" /><inkscape:path-effect
       effect="fillet_chamfer"
       id="path-effect2-45"
       is_visible="true"
       lpeversion="1"
       nodesatellites_param="F,0,0,1,0,0,0,1 @ F,0,0,1,0,0,0,1 @ F,0,0,1,0,0,0,1 @ F,0,0,1,0,0,0,1 @ F,0,0,1,0,4.6975278,0,1 @ F,0,0,1,0,0,0,1 @ F,0,0,1,0,0,0,1 @ F,0,0,1,0,0,0,1 @ F,0,0,1,0,0,0,1 @ F,0,0,1,0,0,0,1 @ F,0,0,1,0,0,0,1 @ F,0,0,1,0,1.1928148,0,1 @ F,0,0,1,0,0,0,1"
       radius="0"
       unit="px"
       method="auto"
       mode="F"
       chamfer_steps="1"
       flexible="false"
       use_knot_distance="true"
       apply_no_radius="true"
       apply_with_radius="true"
       only_selected="false"
       hide_knots="false" /><inkscape:path-effect
       effect="fillet_chamfer"
       id="path-effect2-8-72"
       is_visible="true"
       lpeversion="1"
       nodesatellites_param="F,0,0,1,0,0,0,1 @ F,0,0,1,0,0,0,1 @ F,0,0,1,0,0,0,1 @ F,0,0,1,0,0,0,1 @ F,0,0,1,0,4.6975278,0,1 @ F,0,0,1,0,0,0,1 @ F,0,0,1,0,0,0,1 @ F,0,0,1,0,0,0,1 @ F,0,0,1,0,0,0,1 @ F,0,0,1,0,0,0,1 @ F,0,0,1,0,0,0,1 @ F,0,0,1,0,1.1928148,0,1 @ F,0,0,1,0,0,0,1"
       radius="0"
       unit="px"
       method="auto"
       mode="F"
       chamfer_steps="1"
       flexible="false"
       use_knot_distance="true"
       apply_no_radius="true"
       apply_with_radius="true"
       only_selected="false"
       hide_knots="false" /><inkscape:path-effect
       effect="fillet_chamfer"
       id="path-effect2-8-6"
       is_visible="true"
       lpeversion="1"
       nodesatellites_param="F,0,0,1,0,0,0,1 @ F,0,0,1,0,0,0,1 @ F,0,0,1,0,0,0,1 @ F,0,0,1,0,0,0,1 @ F,0,0,1,0,4.6975278,0,1 @ F,0,0,1,0,0,0,1 @ F,0,0,1,0,0,0,1 @ F,0,0,1,0,0,0,1 @ F,0,0,1,0,0,0,1 @ F,0,0,1,0,0,0,1 @ F,0,0,1,0,0,0,1 @ F,0,0,1,0,1.1928148,0,1 @ F,0,0,1,0,0,0,1"
       radius="0"
       unit="px"
       method="auto"
       mode="F"
       chamfer_steps="1"
       flexible="false"
       use_knot_distance="true"
       apply_no_radius="true"
       apply_with_radius="true"
       only_selected="false"
       hide_knots="false" /><inkscape:path-effect
       effect="fillet_chamfer"
       id="path-effect2-8-72-1"
       is_visible="true"
       lpeversion="1"
       nodesatellites_param="F,0,0,1,0,0,0,1 @ F,0,0,1,0,0,0,1 @ F,0,0,1,0,0,0,1 @ F,0,0,1,0,0,0,1 @ F,0,0,1,0,4.6975278,0,1 @ F,0,0,1,0,0,0,1 @ F,0,0,1,0,0,0,1 @ F,0,0,1,0,0,0,1 @ F,0,0,1,0,0,0,1 @ F,0,0,1,0,0,0,1 @ F,0,0,1,0,0,0,1 @ F,0,0,1,0,1.1928148,0,1 @ F,0,0,1,0,0,0,1"
       radius="0"
       unit="px"
       method="auto"
       mode="F"
       chamfer_steps="1"
       flexible="false"
       use_knot_distance="true"
       apply_no_radius="true"
       apply_with_radius="true"
       only_selected="false"
       hide_knots="false" /><inkscape:path-effect
       effect="fillet_chamfer"
       id="path-effect2-8-72-1-3-6"
       is_visible="true"
       lpeversion="1"
       nodesatellites_param="F,0,0,1,0,0,0,1 @ F,0,0,1,0,0,0,1 @ F,0,0,1,0,0,0,1 @ F,0,0,1,0,0,0,1 @ F,0,0,1,0,4.6975278,0,1 @ F,0,0,1,0,0,0,1 @ F,0,0,1,0,0,0,1 @ F,0,0,1,0,0,0,1 @ F,0,0,1,0,0,0,1 @ F,0,0,1,0,0,0,1 @ F,0,0,1,0,0,0,1 @ F,0,0,1,0,1.1928148,0,1 @ F,0,0,1,0,0,0,1"
       radius="0"
       unit="px"
       method="auto"
       mode="F"
       chamfer_steps="1"
       flexible="false"
       use_knot_distance="true"
       apply_no_radius="true"
       apply_with_radius="true"
       only_selected="false"
       hide_knots="false" /></defs><g
     inkscape:label="Camada 1"
     inkscape:groupmode="layer"
     id="layer1"><text
       xml:space="preserve"
       style="font-style:normal;font-variant:normal;font-weight:500;font-stretch:normal;font-size:34.3777px;font-family:Ubuntu;-inkscape-font-specification:'Ubuntu Medium';fill:#a80030;fill-opacity:1;stroke-width:2.8648"
       x="368.04092"
       y="-198.32652"
       id="text2-8"><tspan
         sodipodi:role="line"
         id="tspan2-8"
         style="font-style:normal;font-variant:normal;font-weight:500;font-stretch:normal;font-family:Ubuntu;-inkscape-font-specification:'Ubuntu Medium';stroke-width:2.8648"
         x="368.04092"
         y="-198.32652">years - años - années - jahre</tspan></text><path
       fill-rule="evenodd"
       clip-rule="evenodd"
       d="m 44.739364,-242.38556 c 16.67105,2.5002 28.97113,-13.35523 27.53848,-29.17817 -1.73101,-19.11769 -21.50753,-19.23934 -29.40302,-15.78164 -14.20191,6.21956 -20.822357,15.44779 -23.646917,19.40598 -2.212267,3.10012 -3.685637,5.44087 -4.665901,7.17052 -1.275261,2.25017 -1.864353,2.14733 -1.247686,-0.36074 0.529688,-2.15431 1.381758,-4.72814 2.653807,-6.9604 6.331955,-11.11161 14.011107,-19.20195 25.627077,-24.45952 26.33141,-9.7536 37.06652,7.44592 37.79159,19.09757 1.21244,19.483 -13.18891,42.33763 -35.18246,39.52042 -15.69875,-2.01093 -22.948234,-13.45947 -18.891804,-26.33688 4.371164,-13.87614 17.048574,-22.0303 26.719604,-18.47513 11.3849,4.1853 6.850309,18.55098 -2.660465,19.02826 -0.657548,0.033 -0.704553,-0.23173 -0.11773,-0.53098 16.121192,-8.22112 -0.60907,-21.20475 -10.818345,-10.75183 -11.06479,11.32895 -6.20116,26.58912 6.30377,28.61254 z"
       fill="#cc0033"
       id="path32-3-5"
       sodipodi:nodetypes="cssssscsssscsc"
       inkscape:label="debian smooth"
       style="fill:#a80030;fill-opacity:1;stroke-width:1.38265"
       inkscape:path-effect="#path-effect2-4"
       inkscape:original-d="m 44.739364,-242.38556 c 16.67105,2.5002 28.97113,-13.35523 27.53848,-29.17817 -1.73101,-19.11769 -21.50753,-19.23934 -29.40302,-15.78164 -14.20191,6.21956 -20.822357,15.44779 -23.646917,19.40598 -6.226872,8.72592 -6.599803,11.43568 -6.599803,11.43568 -0.216495,-0.17754 0.55567,-6.70016 3.340023,-11.5863 6.331955,-11.11161 14.011107,-19.20195 25.627077,-24.45952 26.33141,-9.7536 37.06652,7.44592 37.79159,19.09757 1.21244,19.483 -13.18891,42.33763 -35.18246,39.52042 -15.69875,-2.01093 -22.948234,-13.45947 -18.891804,-26.33688 4.371164,-13.87614 17.048574,-22.0303 26.719604,-18.47513 11.85086,4.3566 6.45246,19.74395 -3.85249,19.01542 17.91055,-8.17601 0.6825,-21.94535 -9.74405,-11.26997 -11.06479,11.32895 -6.20116,26.58912 6.30377,28.61254 z" /><path
       id="path1-6"
       style="font-weight:300;font-size:114.391px;font-family:'Yanone Kaffeesatz';-inkscape-font-specification:'Yanone Kaffeesatz Light';fill:#a80030;fill-opacity:1;stroke-width:9.53256"
       d="m -7.957677,-294.32403 c -3.92178,0.0625 -7.95792,0.52086 -11.5252,2.25116 -1.95728,1.07381 -3.71202,2.67385 -4.70917,4.69025 -0.41997,0.75476 0.0571,1.84989 0.99647,1.77121 1.50347,-0.0418 2.74754,-1.1636 4.13677,-1.44913 3.02674,-0.86776 6.16257,-0.86104 9.32451,-1.03248 3.01387,-0.0692 6.06892,-10e-4 9.02563,0.61418 2.35542,0.77577 4.48354,2.26561 6.06558,4.16241 2.07379,3.1387 1.81382,7.35595 0.0466,10.56987 -1.73223,3.35727 -4.76775,5.73772 -7.7607,7.91586 -2.48976,1.91123 -4.98162,3.83023 -7.63816,5.50785 -0.86891,0.53329 -1.41687,1.81274 -0.6225,2.6453 0.9967,1.00703 2.45626,1.33601 3.75586,1.78516 2.98193,0.67768 6.01677,0.98425 8.89882,2.12385 2.8728,1.08602 5.656023,3.03917 6.757342,6.02117 1.161649,2.87837 1.00603,5.95274 0.708772,8.9961 -0.614751,5.2956 -2.702844,10.63546 -6.696744,14.29111 -2.96408,2.6828 -6.99206,4.13011 -10.98808,3.89919 -2.78468,-0.0756 -5.63601,-0.47189 -8.17815,-1.65759 -2.0219,-1.16462 -3.16214,-3.29238 -4.13946,-5.31953 -0.42789,-0.87833 -1.78892,-1.22972 -2.37546,-0.3191 -0.70031,1.09175 -0.41562,2.48191 -0.41282,3.70894 0.24282,2.61997 0.9149,5.39181 2.75593,7.36248 2.33045,2.11092 5.58003,2.60216 8.56955,3.08844 5.50302,0.73995 11.37215,0.2561 16.28406,-2.51333 4.515383,-2.45568 8.103162,-6.50183 10.076269,-11.24277 2.576023,-5.88754 3.330108,-12.51705 2.428825,-18.86098 -0.875362,-5.4008 -4.600965,-10.21399 -9.596204,-12.44181 -1.64456,-0.79761 -3.38458,-1.38087 -5.14147,-1.8764 4.65212,-3.30215 9.112912,-7.36007 11.298824,-12.75586 1.901462,-4.91596 1.561437,-10.77796 -1.272164,-15.27236 -2.408146,-3.47265 -6.48323,-5.42306 -10.57714,-6.0504 -3.13416,-0.52426 -6.3241,-0.62104 -9.4964,-0.61279 z" /><g
       style="overflow:visible"
       id="g2-6-9"
       transform="matrix(0.29596604,0,0,0.29596604,-53.948303,-58.28425)"><g
         id="Layer_1-1-3"
         i:layer="yes"
         i:dimmedPercent="50"
         i:rgbTrio="#4F008000FFFF">
		<g
   id="g19-2-7"
   transform="matrix(2.238964,0,0,2.238964,133.17192,-1149.3969)">
			
			
			
			
			
			
			
			
			
			
			
			
			<path
   i:knockout="Off"
   d="m 13.437,125.506 c -0.045,0.047 -0.045,7.506 -0.138,9.453 -0.092,1.574 -0.232,4.957 -3.568,4.957 -3.429,0 -4.263,-3.939 -4.541,-5.652 -0.324,-1.9 -0.324,-3.477 -0.324,-4.17 0,-2.225 0.139,-8.436 5.375,-8.436 1.576,0 2.456,0.465 3.151,0.834 z M 0,130.975 c 0,13.066 6.951,13.066 7.97,13.066 2.873,0 4.727,-1.576 5.514,-4.309 l 0.093,4.123 c 0.881,-0.047 1.761,-0.139 3.197,-0.139 0.51,0 0.926,0 1.298,0.047 0.371,0 0.741,0.045 1.158,0.092 -0.741,-1.482 -1.297,-4.818 -1.297,-12.049 0,-7.043 0,-18.951 0.602,-22.566 -1.667,0.789 -3.105,1.299 -6.256,1.576 1.251,1.344 1.251,2.039 1.251,8.154 -0.879,-0.277 -1.992,-0.602 -3.892,-0.602 C 1.344,118.369 0,125.598 0,130.975"
   id="path13-0-4" />
			<path
   i:knockout="Off"
   d="m 25.13,128.609 c 0.047,-3.846 0.835,-7.275 4.124,-7.275 3.615,0 3.891,3.984 3.799,7.275 z m 12.51,0.465 c 0,-5.422 -1.065,-10.752 -7.923,-10.752 -9.452,0 -9.452,10.475 -9.452,12.697 0,9.406 4.216,13.113 11.306,13.113 3.149,0 4.68,-0.461 5.514,-0.695 -0.046,-1.668 0.185,-2.734 0.465,-4.17 -0.975,0.604 -2.226,1.391 -5.006,1.391 -7.229,0 -7.322,-6.582 -7.322,-8.852 H 37.55 l 0.09,-2.732"
   id="path14-6-5" />
			<path
   i:knockout="Off"
   d="m 52.715,131.066 c 0,4.309 -0.787,10.102 -6.162,10.102 -0.742,0 -1.668,-0.141 -2.27,-0.279 -0.093,-1.668 -0.093,-4.541 -0.093,-7.877 0,-3.986 0.416,-6.068 0.742,-7.09 0.972,-3.289 3.15,-3.334 3.566,-3.334 3.522,0 4.217,4.865 4.217,8.478 z m -13.298,5.051 c 0,3.43 0,5.375 -0.556,6.857 1.9,0.742 4.262,1.158 7.09,1.158 1.807,0 7.043,0 9.869,-5.791 1.344,-2.688 1.807,-6.303 1.807,-9.037 0,-1.668 -0.186,-5.328 -1.529,-7.646 -1.296,-2.176 -3.382,-3.289 -5.605,-3.289 -4.449,0 -5.746,3.707 -6.44,5.607 0,-2.363 0.045,-10.611 0.415,-14.828 -3.011,1.391 -4.866,1.621 -6.857,1.807 1.807,0.74 1.807,3.801 1.807,13.764 v 11.398"
   id="path15-3-2" />
			<path
   i:knockout="Off"
   d="m 66.535,143.855 c -0.928,-0.139 -1.578,-0.232 -2.922,-0.232 -1.48,0 -2.502,0.094 -3.566,0.232 0.463,-0.881 0.648,-1.299 0.787,-4.309 0.186,-4.125 0.232,-15.154 -0.092,-17.471 -0.232,-1.762 -0.648,-2.039 -1.297,-2.502 3.799,-0.371 4.865,-0.648 6.625,-1.482 -0.369,2.037 -0.418,3.059 -0.418,6.162 -0.091,15.989 -0.138,17.702 0.883,19.602"
   id="path16-2-5" />
			<path
   i:knockout="Off"
   d="m 81.373,130.74 c -0.092,2.92 -0.139,4.959 -0.928,6.58 -0.973,2.086 -2.594,2.688 -3.799,2.688 -2.783,0 -3.383,-2.316 -3.383,-4.586 0,-4.355 3.893,-4.682 5.652,-4.682 z m -12.744,5.701 c 0,2.92 0.881,5.838 3.477,7.09 1.158,0.51 2.316,0.51 2.688,0.51 4.264,0 5.699,-3.152 6.58,-5.098 -0.047,2.039 0,3.289 0.139,4.912 0.834,-0.047 1.668,-0.139 3.059,-0.139 0.787,0 1.529,0.092 2.316,0.139 -0.51,-0.787 -0.787,-1.252 -0.928,-3.059 -0.092,-1.76 -0.092,-3.521 -0.092,-5.977 l 0.047,-9.453 c 0,-3.523 -0.928,-6.998 -7.879,-6.998 -4.586,0 -7.273,1.391 -8.617,2.086 0.557,1.02 1.02,1.898 1.436,3.893 1.809,-1.576 4.172,-2.41 6.58,-2.41 3.848,0 3.848,2.549 3.848,6.162 -0.881,-0.045 -1.623,-0.137 -2.875,-0.137 -5.887,10e-4 -9.779,2.268 -9.779,8.479"
   id="path17-0-4" />
			<path
   i:knockout="Off"
   d="m 108.063,139.268 c 0.047,1.576 0.047,3.244 0.695,4.588 -1.021,-0.092 -1.623,-0.232 -3.521,-0.232 -1.113,0 -1.715,0.094 -2.596,0.232 0.184,-0.602 0.279,-0.834 0.371,-1.623 0.139,-1.064 0.232,-4.633 0.232,-5.885 v -5.004 c 0,-2.178 0,-5.33 -0.141,-6.441 -0.092,-0.787 -0.322,-2.918 -3.012,-2.918 -2.641,0 -3.521,1.945 -3.846,3.521 -0.369,1.621 -0.369,3.383 -0.369,10.24 0.045,5.932 0.045,6.486 0.508,8.109 -0.787,-0.092 -1.76,-0.184 -3.15,-0.184 -1.113,0 -1.854,0.045 -2.779,0.184 0.324,-0.742 0.51,-1.113 0.602,-3.707 0.094,-2.549 0.279,-15.061 -0.141,-18.025 -0.23,-1.809 -0.695,-2.225 -1.203,-2.688 3.754,-0.186 4.957,-0.789 6.117,-1.389 v 4.91 c 0.555,-1.438 1.713,-4.635 6.348,-4.635 5.793,0 5.838,4.217 5.885,6.996 v 13.951"
   id="path18-6-7" />
			<path
   i:knockout="Off"
   fill="#a80030"
   d="m 66.926,111.533 -3.838,3.836 -3.836,-3.836 3.836,-3.836 3.838,3.836"
   id="path19-1-4" />
		</g>
	</g></g><text
       xml:space="preserve"
       style="font-style:normal;font-variant:normal;font-weight:500;font-stretch:normal;font-size:34.3777px;font-family:Ubuntu;-inkscape-font-specification:'Ubuntu Medium';fill:#a80030;fill-opacity:1;stroke-width:2.8648"
       x="17.004299"
       y="-195.36853"
       id="text2-4"><tspan
         sodipodi:role="line"
         id="tspan2-3"
         style="font-style:normal;font-variant:normal;font-weight:500;font-stretch:normal;font-family:Ubuntu;-inkscape-font-specification:'Ubuntu Medium';stroke-width:2.8648"
         x="17.004299"
         y="-195.36853">years</tspan></text><path
       fill-rule="evenodd"
       clip-rule="evenodd"
       d="m 391.05251,-287.88665 c 16.67105,2.5002 28.97113,-13.35523 27.53848,-29.17817 -1.73101,-19.11769 -21.50753,-19.23934 -29.40302,-15.78164 -14.20191,6.21956 -20.82236,15.44779 -23.64692,19.40598 -2.21227,3.10012 -3.68564,5.44087 -4.6659,7.17052 -1.27526,2.25017 -1.86435,2.14733 -1.24768,-0.36074 0.52968,-2.15431 1.38175,-4.72814 2.6538,-6.9604 6.33196,-11.11161 14.01111,-19.20194 25.62708,-24.45952 26.33141,-9.7536 37.06652,7.44592 37.79159,19.09757 1.21244,19.483 -13.18891,42.33763 -35.18246,39.52042 -15.69875,-2.01093 -22.94823,-13.45947 -18.8918,-26.33688 4.37116,-13.87614 17.04857,-22.0303 26.7196,-18.47513 11.3849,4.1853 6.85031,18.55098 -2.66047,19.02826 -0.65754,0.033 -0.70455,-0.23173 -0.11772,-0.53098 16.12119,-8.22112 -0.60907,-21.20475 -10.81835,-10.75183 -11.06479,11.32895 -6.20116,26.58912 6.30377,28.61254 z"
       fill="#cc0033"
       id="path32-3-2"
       sodipodi:nodetypes="cssssscsssscsc"
       inkscape:label="debian smooth"
       style="fill:#a80030;fill-opacity:1;stroke-width:1.38265"
       inkscape:path-effect="#path-effect2-1"
       inkscape:original-d="m 391.05251,-287.88665 c 16.67105,2.5002 28.97113,-13.35523 27.53848,-29.17817 -1.73101,-19.11769 -21.50753,-19.23934 -29.40302,-15.78164 -14.20191,6.21956 -20.82236,15.44779 -23.64692,19.40598 -6.22687,8.72592 -6.5998,11.43568 -6.5998,11.43568 -0.21649,-0.17754 0.55567,-6.70016 3.34002,-11.5863 6.33196,-11.11161 14.01111,-19.20194 25.62708,-24.45952 26.33141,-9.7536 37.06652,7.44592 37.79159,19.09757 1.21244,19.483 -13.18891,42.33763 -35.18246,39.52042 -15.69875,-2.01093 -22.94823,-13.45947 -18.8918,-26.33688 4.37116,-13.87614 17.04857,-22.0303 26.7196,-18.47513 11.85086,4.3566 6.45246,19.74395 -3.85249,19.01542 17.91055,-8.17601 0.6825,-21.94535 -9.74405,-11.26997 -11.06479,11.32895 -6.20116,26.58912 6.30377,28.61254 z" /><path
       id="path1-0"
       style="font-weight:300;font-size:114.391px;font-family:'Yanone Kaffeesatz';-inkscape-font-specification:'Yanone Kaffeesatz Light';fill:#a80030;fill-opacity:1;stroke-width:9.53256"
       d="m 338.35547,-339.82512 c -3.92178,0.0625 -7.95792,0.52086 -11.5252,2.25117 -1.95728,1.0738 -3.71202,2.67384 -4.70917,4.69024 -0.41997,0.75476 0.0571,1.84989 0.99647,1.77121 1.50347,-0.0418 2.74754,-1.1636 4.13677,-1.44913 3.02674,-0.86776 6.16257,-0.86104 9.32451,-1.03248 3.01387,-0.0692 6.06892,-10e-4 9.02563,0.61418 2.35542,0.77577 4.48354,2.26561 6.06558,4.16241 2.07379,3.1387 1.81382,7.35595 0.0466,10.56987 -1.73223,3.35727 -4.76775,5.73772 -7.7607,7.91586 -2.48976,1.91123 -4.98162,3.83023 -7.63816,5.50785 -0.86891,0.53329 -1.41687,1.81274 -0.6225,2.6453 0.9967,1.00703 2.45626,1.33601 3.75586,1.78516 2.98193,0.67768 6.01677,0.98425 8.89882,2.12385 2.8728,1.08602 5.65602,3.03917 6.75734,6.02117 1.16165,2.87837 1.00603,5.95274 0.70877,8.9961 -0.61475,5.2956 -2.70284,10.63546 -6.69674,14.29111 -2.96408,2.6828 -6.99206,4.13011 -10.98808,3.89919 -2.78468,-0.0756 -5.63601,-0.47189 -8.17815,-1.65759 -2.0219,-1.16462 -3.16214,-3.29238 -4.13946,-5.31953 -0.42789,-0.87833 -1.78892,-1.22972 -2.37546,-0.3191 -0.70031,1.09175 -0.41562,2.48191 -0.41282,3.70894 0.24282,2.61997 0.9149,5.39181 2.75593,7.36248 2.33045,2.11092 5.58003,2.60216 8.56955,3.08844 5.50302,0.73995 11.37215,0.2561 16.28406,-2.51333 4.51538,-2.45568 8.10316,-6.50183 10.07627,-11.24277 2.57602,-5.88754 3.33011,-12.51705 2.42882,-18.86098 -0.87536,-5.4008 -4.60096,-10.21399 -9.5962,-12.44181 -1.64456,-0.79761 -3.38458,-1.38087 -5.14147,-1.8764 4.65212,-3.30215 9.11291,-7.36007 11.29882,-12.75586 1.90146,-4.91596 1.56144,-10.77796 -1.27216,-15.27236 -2.40815,-3.47265 -6.48323,-5.42306 -10.57714,-6.0504 -3.13416,-0.52426 -6.3241,-0.62104 -9.4964,-0.61279 z" /><g
       style="overflow:visible"
       id="g2-6-6"
       transform="matrix(0.29596604,0,0,0.29596604,292.36484,-103.78534)"><g
         id="Layer_1-1-8"
         i:layer="yes"
         i:dimmedPercent="50"
         i:rgbTrio="#4F008000FFFF">
		<g
   id="g19-2-9"
   transform="matrix(2.238964,0,0,2.238964,133.17192,-1149.3969)">
			
			
			
			
			
			
			
			
			
			
			
			
			<path
   i:knockout="Off"
   d="m 13.437,125.506 c -0.045,0.047 -0.045,7.506 -0.138,9.453 -0.092,1.574 -0.232,4.957 -3.568,4.957 -3.429,0 -4.263,-3.939 -4.541,-5.652 -0.324,-1.9 -0.324,-3.477 -0.324,-4.17 0,-2.225 0.139,-8.436 5.375,-8.436 1.576,0 2.456,0.465 3.151,0.834 z M 0,130.975 c 0,13.066 6.951,13.066 7.97,13.066 2.873,0 4.727,-1.576 5.514,-4.309 l 0.093,4.123 c 0.881,-0.047 1.761,-0.139 3.197,-0.139 0.51,0 0.926,0 1.298,0.047 0.371,0 0.741,0.045 1.158,0.092 -0.741,-1.482 -1.297,-4.818 -1.297,-12.049 0,-7.043 0,-18.951 0.602,-22.566 -1.667,0.789 -3.105,1.299 -6.256,1.576 1.251,1.344 1.251,2.039 1.251,8.154 -0.879,-0.277 -1.992,-0.602 -3.892,-0.602 C 1.344,118.369 0,125.598 0,130.975"
   id="path13-0-2" />
			<path
   i:knockout="Off"
   d="m 25.13,128.609 c 0.047,-3.846 0.835,-7.275 4.124,-7.275 3.615,0 3.891,3.984 3.799,7.275 z m 12.51,0.465 c 0,-5.422 -1.065,-10.752 -7.923,-10.752 -9.452,0 -9.452,10.475 -9.452,12.697 0,9.406 4.216,13.113 11.306,13.113 3.149,0 4.68,-0.461 5.514,-0.695 -0.046,-1.668 0.185,-2.734 0.465,-4.17 -0.975,0.604 -2.226,1.391 -5.006,1.391 -7.229,0 -7.322,-6.582 -7.322,-8.852 H 37.55 l 0.09,-2.732"
   id="path14-6-6" />
			<path
   i:knockout="Off"
   d="m 52.715,131.066 c 0,4.309 -0.787,10.102 -6.162,10.102 -0.742,0 -1.668,-0.141 -2.27,-0.279 -0.093,-1.668 -0.093,-4.541 -0.093,-7.877 0,-3.986 0.416,-6.068 0.742,-7.09 0.972,-3.289 3.15,-3.334 3.566,-3.334 3.522,0 4.217,4.865 4.217,8.478 z m -13.298,5.051 c 0,3.43 0,5.375 -0.556,6.857 1.9,0.742 4.262,1.158 7.09,1.158 1.807,0 7.043,0 9.869,-5.791 1.344,-2.688 1.807,-6.303 1.807,-9.037 0,-1.668 -0.186,-5.328 -1.529,-7.646 -1.296,-2.176 -3.382,-3.289 -5.605,-3.289 -4.449,0 -5.746,3.707 -6.44,5.607 0,-2.363 0.045,-10.611 0.415,-14.828 -3.011,1.391 -4.866,1.621 -6.857,1.807 1.807,0.74 1.807,3.801 1.807,13.764 v 11.398"
   id="path15-3-6" />
			<path
   i:knockout="Off"
   d="m 66.535,143.855 c -0.928,-0.139 -1.578,-0.232 -2.922,-0.232 -1.48,0 -2.502,0.094 -3.566,0.232 0.463,-0.881 0.648,-1.299 0.787,-4.309 0.186,-4.125 0.232,-15.154 -0.092,-17.471 -0.232,-1.762 -0.648,-2.039 -1.297,-2.502 3.799,-0.371 4.865,-0.648 6.625,-1.482 -0.369,2.037 -0.418,3.059 -0.418,6.162 -0.091,15.989 -0.138,17.702 0.883,19.602"
   id="path16-2-4" />
			<path
   i:knockout="Off"
   d="m 81.373,130.74 c -0.092,2.92 -0.139,4.959 -0.928,6.58 -0.973,2.086 -2.594,2.688 -3.799,2.688 -2.783,0 -3.383,-2.316 -3.383,-4.586 0,-4.355 3.893,-4.682 5.652,-4.682 z m -12.744,5.701 c 0,2.92 0.881,5.838 3.477,7.09 1.158,0.51 2.316,0.51 2.688,0.51 4.264,0 5.699,-3.152 6.58,-5.098 -0.047,2.039 0,3.289 0.139,4.912 0.834,-0.047 1.668,-0.139 3.059,-0.139 0.787,0 1.529,0.092 2.316,0.139 -0.51,-0.787 -0.787,-1.252 -0.928,-3.059 -0.092,-1.76 -0.092,-3.521 -0.092,-5.977 l 0.047,-9.453 c 0,-3.523 -0.928,-6.998 -7.879,-6.998 -4.586,0 -7.273,1.391 -8.617,2.086 0.557,1.02 1.02,1.898 1.436,3.893 1.809,-1.576 4.172,-2.41 6.58,-2.41 3.848,0 3.848,2.549 3.848,6.162 -0.881,-0.045 -1.623,-0.137 -2.875,-0.137 -5.887,10e-4 -9.779,2.268 -9.779,8.479"
   id="path17-0-9" />
			<path
   i:knockout="Off"
   d="m 108.063,139.268 c 0.047,1.576 0.047,3.244 0.695,4.588 -1.021,-0.092 -1.623,-0.232 -3.521,-0.232 -1.113,0 -1.715,0.094 -2.596,0.232 0.184,-0.602 0.279,-0.834 0.371,-1.623 0.139,-1.064 0.232,-4.633 0.232,-5.885 v -5.004 c 0,-2.178 0,-5.33 -0.141,-6.441 -0.092,-0.787 -0.322,-2.918 -3.012,-2.918 -2.641,0 -3.521,1.945 -3.846,3.521 -0.369,1.621 -0.369,3.383 -0.369,10.24 0.045,5.932 0.045,6.486 0.508,8.109 -0.787,-0.092 -1.76,-0.184 -3.15,-0.184 -1.113,0 -1.854,0.045 -2.779,0.184 0.324,-0.742 0.51,-1.113 0.602,-3.707 0.094,-2.549 0.279,-15.061 -0.141,-18.025 -0.23,-1.809 -0.695,-2.225 -1.203,-2.688 3.754,-0.186 4.957,-0.789 6.117,-1.389 v 4.91 c 0.555,-1.438 1.713,-4.635 6.348,-4.635 5.793,0 5.838,4.217 5.885,6.996 v 13.951"
   id="path18-6-5" />
			<path
   i:knockout="Off"
   fill="#a80030"
   d="m 66.926,111.533 -3.838,3.836 -3.836,-3.836 3.836,-3.836 3.838,3.836"
   id="path19-1-0" />
		</g>
	</g></g><text
       xml:space="preserve"
       style="font-style:normal;font-variant:normal;font-weight:500;font-stretch:normal;font-size:34.3777px;font-family:Ubuntu;-inkscape-font-specification:'Ubuntu Medium';fill:#a80030;fill-opacity:1;stroke-width:2.8648"
       x="368.86554"
       y="-248.27956"
       id="text2-48"><tspan
         sodipodi:role="line"
         id="tspan2-7"
         style="font-style:normal;font-variant:normal;font-weight:500;font-stretch:normal;font-family:Ubuntu;-inkscape-font-specification:'Ubuntu Medium';stroke-width:2.8648"
         x="368.86554"
         y="-248.27956">years</tspan></text><path
       style="fill:none;fill-opacity:1;stroke:#000000;stroke-width:0.252348"
       d="m 388.85626,-255.8813 c 0,0 67.10213,-0.49745 67.00134,-71.93577 -0.10078,-71.43832 -62.50943,-81.66386 -89.2915,-79.99329 -26.78207,1.67056 -78.93577,17.74443 -85.31426,93.24575 -6.37849,75.50132 52.96123,132.52224 115.64485,145.44092"
       id="path20-1" /><g
       id="g1305"
       transform="matrix(5.1160134,0,0,5.1160134,-453.96117,-1177.6203)"><g
         id="g1158-2"
         transform="matrix(0.80964133,0,0,0.80964133,-7.7542818,46.863178)"><path
           fill-rule="evenodd"
           clip-rule="evenodd"
           d="m 157.74206,254.75976 c 8.40447,1.26043 14.60536,-6.73284 13.8831,-14.70974 -0.87264,-9.63788 -10.84267,-9.69921 -14.82308,-7.95606 -7.15967,3.13549 -10.49727,7.78777 -11.92123,9.78323 -0.42807,0.59986 -0.80126,1.14333 -1.12658,1.63462 -1.42705,2.15512 -2.11964,1.96906 -1.14142,-0.41682 0.18116,-0.44182 0.38855,-0.87945 0.62463,-1.29374 3.19215,-5.60174 7.06349,-9.68037 12.91949,-12.33089 13.27459,-4.91712 18.68654,3.75374 19.05207,9.62774 0.61123,9.82206 -6.64899,21.34387 -17.7367,19.92363 -7.9143,-1.01378 -11.56901,-6.7854 -9.52402,-13.27735 2.20365,-6.99544 8.59477,-11.10623 13.47028,-9.31394 5.49975,2.02179 3.63049,8.75601 -0.75383,9.52687 -0.6472,0.11379 -0.69769,-0.15527 -0.12652,-0.48303 7.23174,-4.1499 -0.9423,-10.29103 -5.97413,-5.1391 -5.57816,5.71133 -3.12623,13.4045 3.17794,14.42458 z"
           fill="#cc0033"
           id="path32-3-0-7-5-6-6"
           sodipodi:nodetypes="cssssscsssscsc"
           inkscape:label="debian smooth"
           style="fill:#a80030;fill-opacity:1;stroke-width:0.697043"
           inkscape:path-effect="#path-effect2-8-72-1-3-6"
           inkscape:original-d="m 157.74206,254.75976 c 8.40447,1.26043 14.60536,-6.73284 13.8831,-14.70974 -0.87264,-9.63788 -10.84267,-9.69921 -14.82308,-7.95606 -7.15967,3.13549 -10.49727,7.78777 -11.92123,9.78323 -3.13918,4.39903 -3.32719,5.7651 -3.32719,5.7651 -0.10921,-0.0894 0.28012,-3.37777 1.68382,-5.84104 3.19215,-5.60174 7.06349,-9.68037 12.91949,-12.33089 13.27459,-4.91712 18.68654,3.75374 19.05207,9.62774 0.61123,9.82206 -6.64899,21.34387 -17.7367,19.92363 -7.9143,-1.01378 -11.56901,-6.7854 -9.52402,-13.27735 2.20365,-6.99544 8.59477,-11.10623 13.47028,-9.31394 5.97444,2.1963 3.25292,9.9536 -1.94218,9.58633 9.02936,-4.12181 0.34408,-11.06342 -4.9123,-5.68159 -5.57816,5.71133 -3.12623,13.4045 3.17794,14.42458 z" /><path
           id="path1-9-11-9-7-1"
           style="font-weight:300;font-size:114.391px;font-family:'Yanone Kaffeesatz';-inkscape-font-specification:'Yanone Kaffeesatz Light';fill:#a80030;fill-opacity:1;stroke-width:4.8057"
           d="m 131.17565,228.57578 c -1.9771,0.0314 -4.01187,0.26257 -5.81025,1.13488 -0.98674,0.54134 -1.87137,1.34797 -2.37407,2.36451 -0.21171,0.38051 0.0287,0.9326 0.50236,0.89293 0.75795,-0.0211 1.38513,-0.58662 2.0855,-0.73056 1.52588,-0.43746 3.10677,-0.43407 4.70081,-0.52051 1.5194,-0.0348 3.05954,-5.4e-4 4.55012,0.30964 1.18746,0.39109 2.26031,1.14217 3.05789,2.09841 1.04545,1.58233 0.91439,3.70839 0.0235,5.32864 -0.87328,1.69251 -2.4036,2.89258 -3.91244,3.99067 -1.25519,0.96351 -2.51142,1.93094 -3.85067,2.7767 -0.43806,0.26884 -0.7143,0.91386 -0.31384,1.33357 0.50248,0.5077 1.23831,0.67352 1.89347,0.89997 1.5033,0.34164 3.03327,0.4962 4.48621,1.07071 1.44826,0.54749 2.8514,1.53215 3.40661,3.03547 0.58563,1.4511 0.50717,3.00099 0.35731,4.53526 -0.30991,2.66969 -1.36259,5.3617 -3.37605,7.20463 -1.4943,1.35249 -3.52494,2.08213 -5.53947,1.96573 -1.40386,-0.0381 -2.84132,-0.2379 -4.1229,-0.83566 -1.01931,-0.58712 -1.59415,-1.65981 -2.08685,-2.68176 -0.21571,-0.44279 -0.90185,-0.61994 -1.19755,-0.16085 -0.35305,0.55038 -0.20952,1.2512 -0.20811,1.86979 0.12238,1.32082 0.46124,2.71819 1.38936,3.71168 1.17486,1.06419 2.81309,1.31185 4.3202,1.557 2.77427,0.37303 5.7331,0.12916 8.20936,-1.26707 2.27636,-1.23799 4.08509,-3.27779 5.07979,-5.66786 1.29867,-2.96812 1.67884,-6.31029 1.22446,-9.50848 -0.44129,-2.72273 -2.3195,-5.14922 -4.83777,-6.27233 -0.82908,-0.40212 -1.70628,-0.69616 -2.592,-0.94597 2.3453,-1.66473 4.59414,-3.71047 5.69613,-6.43068 0.9586,-2.4783 0.78719,-5.43354 -0.64134,-7.69932 -1.21403,-1.75068 -3.26842,-2.73396 -5.3323,-3.05023 -1.58004,-0.26429 -3.18821,-0.31309 -4.78746,-0.30891 z" /><path
           d="m 144.36762,267.92028 q -0.69209,-0.34533 -0.8797,-0.65505 -0.1732,-0.30252 -0.0365,-0.57648 0.0863,-0.17302 0.23746,-0.36773 0.14395,-0.1803 0.29525,-0.26688 0.0938,0.17287 0.32458,0.36005 0.22356,0.20162 0.4975,0.33831 0.31722,0.15828 0.71341,-0.0222 0.3962,-0.18048 0.95767,-0.94482 l 1.85268,-7.9357 q 0.0431,-0.19459 0.1079,-0.2523 0.0792,-0.0506 0.37479,0.0789 0.29556,0.12948 0.97323,0.46762 l -0.89793,3.45979 q -0.1365,0.49014 -0.30184,1.00193 -0.1581,0.49738 -0.31631,0.92268 -0.15814,0.42532 -0.25163,0.68481 -0.0935,0.25949 -0.0935,0.25949 0,0 0.13671,-0.23792 0.15112,-0.23075 0.38867,-0.59843 0.25907,-0.37498 0.5542,-0.82198 0.30954,-0.43984 0.59022,-0.85805 l 1.90763,-2.48776 q 0.12234,-0.17307 0.21603,-0.21636 0.10809,-0.0362 0.40364,0.0933 0.30279,0.11498 0.96604,0.44592 l -5.50008,6.72806 q -0.66953,0.80045 -1.19526,1.20444 -0.52573,0.40399 -1.00853,0.43321 -0.46839,0.0364 -1.01629,-0.23696 z"
           id="path811-5-8"
           style="font-weight:500;font-size:28.2223px;font-family:'Yanone Kaffeesatz';-inkscape-font-specification:'Yanone Kaffeesatz Medium';fill:#a80030;fill-opacity:1;stroke-width:0.570962;stroke-linecap:round;stroke-linejoin:round" /><path
           d="m 156.53159,268.20781 q -0.5849,-0.15545 -1.05562,-0.43593 -0.4707,-0.28046 -0.78683,-0.75292 -0.31614,-0.47246 -0.45263,-1.22346 -0.13648,-0.75099 -0.0349,-1.85823 0.12948,-1.4106 0.45813,-2.19337 0.33003,-0.79793 0.78819,-1.12676 0.45815,-0.32884 1.00684,-0.3384 0.55007,-0.0248 1.10157,0.12184 1.03612,0.27535 1.53188,1.0286 0.49719,0.7381 0.383,1.98185 -0.0487,0.53087 -0.14905,1.06355 -0.10021,0.53273 -0.25482,0.91117 -0.54451,-0.0359 -1.23386,-0.17254 -0.68933,-0.13662 -1.32717,-0.27497 -0.61971,-0.14917 -1.02079,-0.25576 -0.40108,-0.10659 -0.40108,-0.10659 l 0.13643,-1.11352 q 0,0 0.2827,0.0906 0.2841,0.0755 0.7186,0.19098 0.4345,0.11546 0.85506,0.19618 0.43867,0.07 0.72973,0.0696 0.0682,-0.18387 0.10578,-0.40695 0.039,-0.23824 0.0585,-0.45059 0.0724,-0.78871 -0.085,-1.12575 -0.14061,-0.3326 -0.6253,-0.46139 -0.25066,-0.0666 -0.49854,0.023 -0.22979,0.0787 -0.42891,0.3832 -0.18244,0.3089 -0.337,0.87379 -0.13789,0.56931 -0.21864,1.44904 -0.0599,0.65221 -0.0167,1.11429 0.0432,0.46206 0.16991,0.75988 0.14345,0.30226 0.39969,0.49466 0.27435,0.18168 0.65871,0.28382 0.48463,0.1288 0.9637,0.1318 0.49569,0.007 0.93305,-0.0939 0.0654,0.2194 0.0571,0.49686 0.01,0.26672 -0.01,0.47907 -0.0237,0.25786 -0.35927,0.37065 -0.33564,0.11276 -0.88016,0.0768 -0.52779,-0.0315 -1.16283,-0.20026 z"
           id="path813-3-7"
           style="font-weight:500;font-size:28.2223px;font-family:'Yanone Kaffeesatz';-inkscape-font-specification:'Yanone Kaffeesatz Medium';fill:#a80030;fill-opacity:1;stroke-width:0.570962;stroke-linecap:round;stroke-linejoin:round" /><path
           d="m 165.00866,268.58084 q -0.44282,0.0865 -0.86946,0.0877 -0.40772,0.014 -0.78619,-0.15835 -0.36574,-0.19125 -0.65129,-0.64443 -0.26974,-0.45629 -0.42731,-1.26284 -0.16066,-0.82237 -0.10138,-1.35934 0.072,-0.55587 0.30415,-0.88034 0.24486,-0.34338 0.57425,-0.50623 0.34212,-0.18177 0.72168,-0.25592 0.23722,-0.0464 0.57858,-0.0638 0.34139,-0.0175 0.58753,0.0658 0,0 -0.0402,-0.2056 -0.0402,-0.20559 -0.0958,-0.49026 -0.0556,-0.28467 -0.0989,-0.50607 -0.0618,-0.3163 -0.19068,-0.47172 -0.12889,-0.15542 -0.34992,-0.19435 -0.20523,-0.042 -0.50571,0.0167 -0.55353,0.10814 -1.08542,0.32698 -0.53498,0.20305 -0.87092,0.41643 -0.16977,-0.19669 -0.26047,-0.40883 -0.0749,-0.21524 -0.10576,-0.37339 -0.0247,-0.1265 -0.005,-0.2781 0.0197,-0.15162 0.10218,-0.23342 0.18087,-0.16667 0.78257,-0.44841 0.61751,-0.28482 1.53478,-0.46402 1.04378,-0.20392 1.58583,0.13348 0.54205,0.3374 0.75214,1.41281 l 0.15758,0.80657 q 0.17611,0.90144 0.3426,1.83761 0.1792,0.91726 0.32097,1.72691 0.14177,0.80964 0.22757,1.41679 -0.30775,0.27355 -0.84619,0.54293 -0.53844,0.26938 -1.28174,0.41459 z m -0.12411,-1.22357 q 0.2214,-0.0433 0.39883,-0.14353 0.19325,-0.10337 0.26959,-0.21685 -0.0305,-0.24032 -0.0951,-0.65459 -0.0645,-0.41427 -0.15413,-0.8729 -0.0927,-0.47445 -0.16993,-0.86982 -0.1578,-0.0513 -0.33792,-0.0489 -0.18014,0.002 -0.32247,0.0302 -0.20561,0.0402 -0.38301,0.14055 -0.1647,0.0814 -0.27614,0.26738 -0.0956,0.18287 -0.11599,0.4988 -0.008,0.29702 0.0851,0.77146 0.0772,0.39536 0.17408,0.63915 0.10955,0.22489 0.24811,0.34558 0.13851,0.1207 0.30593,0.13724 0.18322,0.0134 0.373,-0.0237 z"
           id="path815-5-9"
           style="font-weight:500;font-size:28.2223px;font-family:'Yanone Kaffeesatz';-inkscape-font-specification:'Yanone Kaffeesatz Medium';fill:#a80030;fill-opacity:1;stroke-width:0.570962;stroke-linecap:round;stroke-linejoin:round" /><path
           d="m 171.40407,265.87784 -4.27236,-6.15557 q 0.1869,-0.52202 0.53995,-1.00244 0.35713,-0.50286 0.86016,-0.85199 0.52952,-0.36752 0.81591,-0.35054 0.29963,0.008 0.51096,0.31227 0.0735,0.1059 0.18487,0.32283 0.11136,0.21693 0.16973,0.47064 -0.18751,0.0124 -0.35149,0.087 -0.17321,0.0613 -0.33207,0.17156 -0.18533,0.12863 -0.35118,0.34186 -0.16585,0.21321 -0.23689,0.47825 l 3.52815,5.08331 q 0.0827,0.11914 0.0665,0.20887 -0.0254,0.0764 -0.28098,0.27342 -0.24234,0.18779 -0.85128,0.61043 z"
           id="path817-6-2"
           style="font-weight:500;font-size:28.2223px;font-family:'Yanone Kaffeesatz';-inkscape-font-specification:'Yanone Kaffeesatz Medium';fill:#a80030;fill-opacity:1;stroke-width:0.570962;stroke-linecap:round;stroke-linejoin:round" /><path
           d="m 178.55422,259.76137 q -0.52394,0.6539 -1.02751,0.97312 -0.50605,0.29657 -0.85816,0.0144 -0.13832,-0.11083 -0.2716,-0.27952 -0.13572,-0.19139 -0.23369,-0.45567 0.36249,-0.14317 0.67977,-0.38452 0.31728,-0.24133 0.57926,-0.56829 0.35265,-0.44012 0.35797,-0.80754 0.0154,-0.37999 -0.32414,-0.65204 -0.21378,-0.17129 -0.49809,-0.25455 -0.29688,-0.0933 -0.73732,-0.0333 l -2.0286,0.31554 q -0.66445,0.10769 -1.12489,-0.0135 -0.45036,-0.13372 -0.75216,-0.37554 -0.44012,-0.35265 -0.61844,-0.82591 -0.16824,-0.48581 0.006,-1.08967 0.1716,-0.62648 0.75601,-1.35584 0.53403,-0.66648 0.92175,-0.89267 0.3978,-0.23877 0.66453,-0.21088 0.25416,0.0178 0.39249,0.12864 0.3018,0.24182 0.387,0.70243 -0.37506,0.13309 -0.68226,0.36186 -0.3072,0.22875 -0.57926,0.56829 -0.32242,0.4024 -0.36546,0.73959 -0.043,0.33718 0.20846,0.5387 0.1509,0.12091 0.37484,0.17643 0.22143,0.0329 0.71726,-0.0447 l 1.8323,-0.32826 q 0.72484,-0.08 1.18528,0.0412 0.46043,0.12114 0.93829,0.50403 0.84253,0.67508 0.85439,1.61377 0.022,0.92611 -0.7539,1.8944 z"
           id="path819-2-02"
           style="font-weight:500;font-size:28.2223px;font-family:'Yanone Kaffeesatz';-inkscape-font-specification:'Yanone Kaffeesatz Medium';fill:#a80030;fill-opacity:1;stroke-width:0.570962;stroke-linecap:round;stroke-linejoin:round" /></g><g
         style="overflow:visible"
         id="g2-6-8-39-7"
         transform="matrix(0.17862869,0,0,0.17862869,67.999454,428.27761)"><g
           id="Layer_1-1-4-4-0"
           i:layer="yes"
           i:dimmedPercent="50"
           i:rgbTrio="#4F008000FFFF">
		<g
   id="g19-2-8-8-9"
   transform="matrix(2.238964,0,0,2.238964,133.17192,-1149.3969)">
			
			
			
			
			
			
			
			
			
			
			
			
			<path
   i:knockout="Off"
   d="m 13.437,125.506 c -0.045,0.047 -0.045,7.506 -0.138,9.453 -0.092,1.574 -0.232,4.957 -3.568,4.957 -3.429,0 -4.263,-3.939 -4.541,-5.652 -0.324,-1.9 -0.324,-3.477 -0.324,-4.17 0,-2.225 0.139,-8.436 5.375,-8.436 1.576,0 2.456,0.465 3.151,0.834 z M 0,130.975 c 0,13.066 6.951,13.066 7.97,13.066 2.873,0 4.727,-1.576 5.514,-4.309 l 0.093,4.123 c 0.881,-0.047 1.761,-0.139 3.197,-0.139 0.51,0 0.926,0 1.298,0.047 0.371,0 0.741,0.045 1.158,0.092 -0.741,-1.482 -1.297,-4.818 -1.297,-12.049 0,-7.043 0,-18.951 0.602,-22.566 -1.667,0.789 -3.105,1.299 -6.256,1.576 1.251,1.344 1.251,2.039 1.251,8.154 -0.879,-0.277 -1.992,-0.602 -3.892,-0.602 C 1.344,118.369 0,125.598 0,130.975"
   id="path13-0-10-1-3" />
			<path
   i:knockout="Off"
   d="m 25.13,128.609 c 0.047,-3.846 0.835,-7.275 4.124,-7.275 3.615,0 3.891,3.984 3.799,7.275 z m 12.51,0.465 c 0,-5.422 -1.065,-10.752 -7.923,-10.752 -9.452,0 -9.452,10.475 -9.452,12.697 0,9.406 4.216,13.113 11.306,13.113 3.149,0 4.68,-0.461 5.514,-0.695 -0.046,-1.668 0.185,-2.734 0.465,-4.17 -0.975,0.604 -2.226,1.391 -5.006,1.391 -7.229,0 -7.322,-6.582 -7.322,-8.852 H 37.55 l 0.09,-2.732"
   id="path14-6-3-2-6" />
			<path
   i:knockout="Off"
   d="m 52.715,131.066 c 0,4.309 -0.787,10.102 -6.162,10.102 -0.742,0 -1.668,-0.141 -2.27,-0.279 -0.093,-1.668 -0.093,-4.541 -0.093,-7.877 0,-3.986 0.416,-6.068 0.742,-7.09 0.972,-3.289 3.15,-3.334 3.566,-3.334 3.522,0 4.217,4.865 4.217,8.478 z m -13.298,5.051 c 0,3.43 0,5.375 -0.556,6.857 1.9,0.742 4.262,1.158 7.09,1.158 1.807,0 7.043,0 9.869,-5.791 1.344,-2.688 1.807,-6.303 1.807,-9.037 0,-1.668 -0.186,-5.328 -1.529,-7.646 -1.296,-2.176 -3.382,-3.289 -5.605,-3.289 -4.449,0 -5.746,3.707 -6.44,5.607 0,-2.363 0.045,-10.611 0.415,-14.828 -3.011,1.391 -4.866,1.621 -6.857,1.807 1.807,0.74 1.807,3.801 1.807,13.764 v 11.398"
   id="path15-3-0-93-0" />
			<path
   i:knockout="Off"
   d="m 66.535,143.855 c -0.928,-0.139 -1.578,-0.232 -2.922,-0.232 -1.48,0 -2.502,0.094 -3.566,0.232 0.463,-0.881 0.648,-1.299 0.787,-4.309 0.186,-4.125 0.232,-15.154 -0.092,-17.471 -0.232,-1.762 -0.648,-2.039 -1.297,-2.502 3.799,-0.371 4.865,-0.648 6.625,-1.482 -0.369,2.037 -0.418,3.059 -0.418,6.162 -0.091,15.989 -0.138,17.702 0.883,19.602"
   id="path16-2-44-9-6" />
			<path
   i:knockout="Off"
   d="m 81.373,130.74 c -0.092,2.92 -0.139,4.959 -0.928,6.58 -0.973,2.086 -2.594,2.688 -3.799,2.688 -2.783,0 -3.383,-2.316 -3.383,-4.586 0,-4.355 3.893,-4.682 5.652,-4.682 z m -12.744,5.701 c 0,2.92 0.881,5.838 3.477,7.09 1.158,0.51 2.316,0.51 2.688,0.51 4.264,0 5.699,-3.152 6.58,-5.098 -0.047,2.039 0,3.289 0.139,4.912 0.834,-0.047 1.668,-0.139 3.059,-0.139 0.787,0 1.529,0.092 2.316,0.139 -0.51,-0.787 -0.787,-1.252 -0.928,-3.059 -0.092,-1.76 -0.092,-3.521 -0.092,-5.977 l 0.047,-9.453 c 0,-3.523 -0.928,-6.998 -7.879,-6.998 -4.586,0 -7.273,1.391 -8.617,2.086 0.557,1.02 1.02,1.898 1.436,3.893 1.809,-1.576 4.172,-2.41 6.58,-2.41 3.848,0 3.848,2.549 3.848,6.162 -0.881,-0.045 -1.623,-0.137 -2.875,-0.137 -5.887,10e-4 -9.779,2.268 -9.779,8.479"
   id="path17-0-44-0-2" />
			<path
   i:knockout="Off"
   d="m 108.063,139.268 c 0.047,1.576 0.047,3.244 0.695,4.588 -1.021,-0.092 -1.623,-0.232 -3.521,-0.232 -1.113,0 -1.715,0.094 -2.596,0.232 0.184,-0.602 0.279,-0.834 0.371,-1.623 0.139,-1.064 0.232,-4.633 0.232,-5.885 v -5.004 c 0,-2.178 0,-5.33 -0.141,-6.441 -0.092,-0.787 -0.322,-2.918 -3.012,-2.918 -2.641,0 -3.521,1.945 -3.846,3.521 -0.369,1.621 -0.369,3.383 -0.369,10.24 0.045,5.932 0.045,6.486 0.508,8.109 -0.787,-0.092 -1.76,-0.184 -3.15,-0.184 -1.113,0 -1.854,0.045 -2.779,0.184 0.324,-0.742 0.51,-1.113 0.602,-3.707 0.094,-2.549 0.279,-15.061 -0.141,-18.025 -0.23,-1.809 -0.695,-2.225 -1.203,-2.688 3.754,-0.186 4.957,-0.789 6.117,-1.389 v 4.91 c 0.555,-1.438 1.713,-4.635 6.348,-4.635 5.793,0 5.838,4.217 5.885,6.996 v 13.951"
   id="path18-6-76-8-6" />
			<path
   i:knockout="Off"
   fill="#a80030"
   d="m 66.926,111.533 -3.838,3.836 -3.836,-3.836 3.836,-3.836 3.838,3.836"
   id="path19-1-3-8-1" />
		</g>
	</g></g></g></g></svg>
